%YAML 1.1
%TAG !u! tag:unity3d.com,2011:
--- !u!1 &5482305436971719774
GameObject:
  m_ObjectHideFlags: 0
  m_CorrespondingSourceObject: {fileID: 0}
  m_PrefabInstance: {fileID: 0}
  m_PrefabAsset: {fileID: 0}
  serializedVersion: 6
  m_Component:
  - component: {fileID: 2941919443701795734}
  - component: {fileID: 4874443095902073517}
  - component: {fileID: 5700830690904849537}
  m_Layer: 31
  m_Name: Layer1
  m_TagString: Untagged
  m_Icon: {fileID: 0}
  m_NavMeshLayer: 0
  m_StaticEditorFlags: 0
  m_IsActive: 1
--- !u!4 &2941919443701795734
Transform:
  m_ObjectHideFlags: 0
  m_CorrespondingSourceObject: {fileID: 0}
  m_PrefabInstance: {fileID: 0}
  m_PrefabAsset: {fileID: 0}
  m_GameObject: {fileID: 5482305436971719774}
  m_LocalRotation: {x: -0, y: -0, z: -0, w: 1}
  m_LocalPosition: {x: 0, y: 0, z: 0}
  m_LocalScale: {x: 1, y: 1, z: 1}
  m_Children: []
  m_Father: {fileID: 4871145583753662348}
  m_RootOrder: 0
  m_LocalEulerAnglesHint: {x: 0, y: 0, z: 0}
--- !u!1839735485 &4874443095902073517
Tilemap:
  m_ObjectHideFlags: 0
  m_CorrespondingSourceObject: {fileID: 0}
  m_PrefabInstance: {fileID: 0}
  m_PrefabAsset: {fileID: 0}
  m_GameObject: {fileID: 5482305436971719774}
  m_Enabled: 1
  m_Tiles:
  - first: {x: -2, y: -9, z: 0}
    second:
      serializedVersion: 2
      m_TileIndex: 49
      m_TileSpriteIndex: 49
      m_TileMatrixIndex: 0
      m_TileColorIndex: 0
      m_TileObjectToInstantiateIndex: 65535
      m_AllTileFlags: 1073741825
  - first: {x: -1, y: -9, z: 0}
    second:
      serializedVersion: 2
      m_TileIndex: 48
      m_TileSpriteIndex: 48
      m_TileMatrixIndex: 0
      m_TileColorIndex: 0
      m_TileObjectToInstantiateIndex: 65535
      m_AllTileFlags: 1073741825
  - first: {x: 2, y: -9, z: 0}
    second:
      serializedVersion: 2
      m_TileIndex: 50
      m_TileSpriteIndex: 50
      m_TileMatrixIndex: 0
      m_TileColorIndex: 0
      m_TileObjectToInstantiateIndex: 65535
      m_AllTileFlags: 1073741825
  - first: {x: 6, y: -9, z: 0}
    second:
      serializedVersion: 2
      m_TileIndex: 51
      m_TileSpriteIndex: 51
      m_TileMatrixIndex: 0
      m_TileColorIndex: 0
      m_TileObjectToInstantiateIndex: 65535
      m_AllTileFlags: 1073741825
  - first: {x: -3, y: -5, z: 0}
    second:
      serializedVersion: 2
      m_TileIndex: 40
      m_TileSpriteIndex: 40
      m_TileMatrixIndex: 0
      m_TileColorIndex: 0
      m_TileObjectToInstantiateIndex: 65535
      m_AllTileFlags: 1073741825
  - first: {x: -2, y: -5, z: 0}
    second:
      serializedVersion: 2
      m_TileIndex: 41
      m_TileSpriteIndex: 41
      m_TileMatrixIndex: 0
      m_TileColorIndex: 0
      m_TileObjectToInstantiateIndex: 65535
      m_AllTileFlags: 1073741825
  - first: {x: -1, y: -5, z: 0}
    second:
      serializedVersion: 2
      m_TileIndex: 42
      m_TileSpriteIndex: 42
      m_TileMatrixIndex: 0
      m_TileColorIndex: 0
      m_TileObjectToInstantiateIndex: 65535
      m_AllTileFlags: 1073741825
  - first: {x: 0, y: -5, z: 0}
    second:
      serializedVersion: 2
      m_TileIndex: 43
      m_TileSpriteIndex: 43
      m_TileMatrixIndex: 0
      m_TileColorIndex: 0
      m_TileObjectToInstantiateIndex: 65535
      m_AllTileFlags: 1073741825
  - first: {x: 1, y: -5, z: 0}
    second:
      serializedVersion: 2
      m_TileIndex: 44
      m_TileSpriteIndex: 44
      m_TileMatrixIndex: 0
      m_TileColorIndex: 0
      m_TileObjectToInstantiateIndex: 65535
      m_AllTileFlags: 1073741825
  - first: {x: 2, y: -5, z: 0}
    second:
      serializedVersion: 2
      m_TileIndex: 45
      m_TileSpriteIndex: 45
      m_TileMatrixIndex: 0
      m_TileColorIndex: 0
      m_TileObjectToInstantiateIndex: 65535
      m_AllTileFlags: 1073741825
  - first: {x: 3, y: -5, z: 0}
    second:
      serializedVersion: 2
      m_TileIndex: 46
      m_TileSpriteIndex: 46
      m_TileMatrixIndex: 0
      m_TileColorIndex: 0
      m_TileObjectToInstantiateIndex: 65535
      m_AllTileFlags: 1073741825
  - first: {x: 4, y: -5, z: 0}
    second:
      serializedVersion: 2
      m_TileIndex: 47
      m_TileSpriteIndex: 47
      m_TileMatrixIndex: 0
      m_TileColorIndex: 0
      m_TileObjectToInstantiateIndex: 65535
      m_AllTileFlags: 1073741825
  - first: {x: -3, y: -4, z: 0}
    second:
      serializedVersion: 2
      m_TileIndex: 32
      m_TileSpriteIndex: 32
      m_TileMatrixIndex: 0
      m_TileColorIndex: 0
      m_TileObjectToInstantiateIndex: 65535
      m_AllTileFlags: 1073741825
  - first: {x: -2, y: -4, z: 0}
    second:
      serializedVersion: 2
      m_TileIndex: 33
      m_TileSpriteIndex: 33
      m_TileMatrixIndex: 0
      m_TileColorIndex: 0
      m_TileObjectToInstantiateIndex: 65535
      m_AllTileFlags: 1073741825
  - first: {x: -1, y: -4, z: 0}
    second:
      serializedVersion: 2
      m_TileIndex: 34
      m_TileSpriteIndex: 34
      m_TileMatrixIndex: 0
      m_TileColorIndex: 0
      m_TileObjectToInstantiateIndex: 65535
      m_AllTileFlags: 1073741825
  - first: {x: 0, y: -4, z: 0}
    second:
      serializedVersion: 2
      m_TileIndex: 35
      m_TileSpriteIndex: 35
      m_TileMatrixIndex: 0
      m_TileColorIndex: 0
      m_TileObjectToInstantiateIndex: 65535
      m_AllTileFlags: 1073741825
  - first: {x: 1, y: -4, z: 0}
    second:
      serializedVersion: 2
      m_TileIndex: 36
      m_TileSpriteIndex: 36
      m_TileMatrixIndex: 0
      m_TileColorIndex: 0
      m_TileObjectToInstantiateIndex: 65535
      m_AllTileFlags: 1073741825
  - first: {x: 2, y: -4, z: 0}
    second:
      serializedVersion: 2
      m_TileIndex: 37
      m_TileSpriteIndex: 37
      m_TileMatrixIndex: 0
      m_TileColorIndex: 0
      m_TileObjectToInstantiateIndex: 65535
      m_AllTileFlags: 1073741825
  - first: {x: 3, y: -4, z: 0}
    second:
      serializedVersion: 2
      m_TileIndex: 38
      m_TileSpriteIndex: 38
      m_TileMatrixIndex: 0
      m_TileColorIndex: 0
      m_TileObjectToInstantiateIndex: 65535
      m_AllTileFlags: 1073741825
  - first: {x: 4, y: -4, z: 0}
    second:
      serializedVersion: 2
      m_TileIndex: 39
      m_TileSpriteIndex: 39
      m_TileMatrixIndex: 0
      m_TileColorIndex: 0
      m_TileObjectToInstantiateIndex: 65535
      m_AllTileFlags: 1073741825
  - first: {x: -3, y: -3, z: 0}
    second:
      serializedVersion: 2
      m_TileIndex: 24
      m_TileSpriteIndex: 24
      m_TileMatrixIndex: 0
      m_TileColorIndex: 0
      m_TileObjectToInstantiateIndex: 65535
      m_AllTileFlags: 1073741825
  - first: {x: -2, y: -3, z: 0}
    second:
      serializedVersion: 2
      m_TileIndex: 25
      m_TileSpriteIndex: 25
      m_TileMatrixIndex: 0
      m_TileColorIndex: 0
      m_TileObjectToInstantiateIndex: 65535
      m_AllTileFlags: 1073741825
  - first: {x: -1, y: -3, z: 0}
    second:
      serializedVersion: 2
      m_TileIndex: 26
      m_TileSpriteIndex: 26
      m_TileMatrixIndex: 0
      m_TileColorIndex: 0
      m_TileObjectToInstantiateIndex: 65535
      m_AllTileFlags: 1073741825
  - first: {x: 0, y: -3, z: 0}
    second:
      serializedVersion: 2
      m_TileIndex: 27
      m_TileSpriteIndex: 27
      m_TileMatrixIndex: 0
      m_TileColorIndex: 0
      m_TileObjectToInstantiateIndex: 65535
      m_AllTileFlags: 1073741825
  - first: {x: 1, y: -3, z: 0}
    second:
      serializedVersion: 2
      m_TileIndex: 28
      m_TileSpriteIndex: 28
      m_TileMatrixIndex: 0
      m_TileColorIndex: 0
      m_TileObjectToInstantiateIndex: 65535
      m_AllTileFlags: 1073741825
  - first: {x: 2, y: -3, z: 0}
    second:
      serializedVersion: 2
      m_TileIndex: 29
      m_TileSpriteIndex: 29
      m_TileMatrixIndex: 0
      m_TileColorIndex: 0
      m_TileObjectToInstantiateIndex: 65535
      m_AllTileFlags: 1073741825
  - first: {x: 3, y: -3, z: 0}
    second:
      serializedVersion: 2
      m_TileIndex: 30
      m_TileSpriteIndex: 30
      m_TileMatrixIndex: 0
      m_TileColorIndex: 0
      m_TileObjectToInstantiateIndex: 65535
      m_AllTileFlags: 1073741825
  - first: {x: 4, y: -3, z: 0}
    second:
      serializedVersion: 2
      m_TileIndex: 31
      m_TileSpriteIndex: 31
      m_TileMatrixIndex: 0
      m_TileColorIndex: 0
      m_TileObjectToInstantiateIndex: 65535
      m_AllTileFlags: 1073741825
  - first: {x: -3, y: -2, z: 0}
    second:
      serializedVersion: 2
      m_TileIndex: 16
      m_TileSpriteIndex: 16
      m_TileMatrixIndex: 0
      m_TileColorIndex: 0
      m_TileObjectToInstantiateIndex: 65535
      m_AllTileFlags: 1073741825
  - first: {x: -2, y: -2, z: 0}
    second:
      serializedVersion: 2
      m_TileIndex: 17
      m_TileSpriteIndex: 17
      m_TileMatrixIndex: 0
      m_TileColorIndex: 0
      m_TileObjectToInstantiateIndex: 65535
      m_AllTileFlags: 1073741825
  - first: {x: -1, y: -2, z: 0}
    second:
      serializedVersion: 2
      m_TileIndex: 18
      m_TileSpriteIndex: 18
      m_TileMatrixIndex: 0
      m_TileColorIndex: 0
      m_TileObjectToInstantiateIndex: 65535
      m_AllTileFlags: 1073741825
  - first: {x: 0, y: -2, z: 0}
    second:
      serializedVersion: 2
      m_TileIndex: 19
      m_TileSpriteIndex: 19
      m_TileMatrixIndex: 0
      m_TileColorIndex: 0
      m_TileObjectToInstantiateIndex: 65535
      m_AllTileFlags: 1073741825
  - first: {x: 1, y: -2, z: 0}
    second:
      serializedVersion: 2
      m_TileIndex: 20
      m_TileSpriteIndex: 20
      m_TileMatrixIndex: 0
      m_TileColorIndex: 0
      m_TileObjectToInstantiateIndex: 65535
      m_AllTileFlags: 1073741825
  - first: {x: 2, y: -2, z: 0}
    second:
      serializedVersion: 2
      m_TileIndex: 21
      m_TileSpriteIndex: 21
      m_TileMatrixIndex: 0
      m_TileColorIndex: 0
      m_TileObjectToInstantiateIndex: 65535
      m_AllTileFlags: 1073741825
  - first: {x: 3, y: -2, z: 0}
    second:
      serializedVersion: 2
      m_TileIndex: 22
      m_TileSpriteIndex: 22
      m_TileMatrixIndex: 0
      m_TileColorIndex: 0
      m_TileObjectToInstantiateIndex: 65535
      m_AllTileFlags: 1073741825
  - first: {x: 4, y: -2, z: 0}
    second:
      serializedVersion: 2
      m_TileIndex: 23
      m_TileSpriteIndex: 23
      m_TileMatrixIndex: 0
      m_TileColorIndex: 0
      m_TileObjectToInstantiateIndex: 65535
      m_AllTileFlags: 1073741825
  - first: {x: 10, y: -2, z: 0}
    second:
      serializedVersion: 2
      m_TileIndex: 52
      m_TileSpriteIndex: 38
      m_TileMatrixIndex: 0
      m_TileColorIndex: 0
      m_TileObjectToInstantiateIndex: 65535
      m_AllTileFlags: 1073741826
  - first: {x: -3, y: -1, z: 0}
    second:
      serializedVersion: 2
      m_TileIndex: 8
      m_TileSpriteIndex: 8
      m_TileMatrixIndex: 0
      m_TileColorIndex: 0
      m_TileObjectToInstantiateIndex: 65535
      m_AllTileFlags: 1073741825
  - first: {x: -2, y: -1, z: 0}
    second:
      serializedVersion: 2
      m_TileIndex: 9
      m_TileSpriteIndex: 9
      m_TileMatrixIndex: 0
      m_TileColorIndex: 0
      m_TileObjectToInstantiateIndex: 65535
      m_AllTileFlags: 1073741825
  - first: {x: -1, y: -1, z: 0}
    second:
      serializedVersion: 2
      m_TileIndex: 10
      m_TileSpriteIndex: 10
      m_TileMatrixIndex: 0
      m_TileColorIndex: 0
      m_TileObjectToInstantiateIndex: 65535
      m_AllTileFlags: 1073741825
  - first: {x: 0, y: -1, z: 0}
    second:
      serializedVersion: 2
      m_TileIndex: 11
      m_TileSpriteIndex: 11
      m_TileMatrixIndex: 0
      m_TileColorIndex: 0
      m_TileObjectToInstantiateIndex: 65535
      m_AllTileFlags: 1073741825
  - first: {x: 1, y: -1, z: 0}
    second:
      serializedVersion: 2
      m_TileIndex: 12
      m_TileSpriteIndex: 12
      m_TileMatrixIndex: 0
      m_TileColorIndex: 0
      m_TileObjectToInstantiateIndex: 65535
      m_AllTileFlags: 1073741825
  - first: {x: 2, y: -1, z: 0}
    second:
      serializedVersion: 2
      m_TileIndex: 13
      m_TileSpriteIndex: 13
      m_TileMatrixIndex: 0
      m_TileColorIndex: 0
      m_TileObjectToInstantiateIndex: 65535
      m_AllTileFlags: 1073741825
  - first: {x: 3, y: -1, z: 0}
    second:
      serializedVersion: 2
      m_TileIndex: 14
      m_TileSpriteIndex: 14
      m_TileMatrixIndex: 0
      m_TileColorIndex: 0
      m_TileObjectToInstantiateIndex: 65535
      m_AllTileFlags: 1073741825
  - first: {x: 4, y: -1, z: 0}
    second:
      serializedVersion: 2
      m_TileIndex: 15
      m_TileSpriteIndex: 15
      m_TileMatrixIndex: 0
      m_TileColorIndex: 0
      m_TileObjectToInstantiateIndex: 65535
      m_AllTileFlags: 1073741825
  - first: {x: -3, y: 0, z: 0}
    second:
      serializedVersion: 2
      m_TileIndex: 0
      m_TileSpriteIndex: 0
      m_TileMatrixIndex: 0
      m_TileColorIndex: 0
      m_TileObjectToInstantiateIndex: 65535
      m_AllTileFlags: 1073741825
  - first: {x: -2, y: 0, z: 0}
    second:
      serializedVersion: 2
      m_TileIndex: 1
      m_TileSpriteIndex: 1
      m_TileMatrixIndex: 0
      m_TileColorIndex: 0
      m_TileObjectToInstantiateIndex: 65535
      m_AllTileFlags: 1073741825
  - first: {x: -1, y: 0, z: 0}
    second:
      serializedVersion: 2
      m_TileIndex: 2
      m_TileSpriteIndex: 2
      m_TileMatrixIndex: 0
      m_TileColorIndex: 0
      m_TileObjectToInstantiateIndex: 65535
      m_AllTileFlags: 1073741825
  - first: {x: 0, y: 0, z: 0}
    second:
      serializedVersion: 2
      m_TileIndex: 3
      m_TileSpriteIndex: 3
      m_TileMatrixIndex: 0
      m_TileColorIndex: 0
      m_TileObjectToInstantiateIndex: 65535
      m_AllTileFlags: 1073741825
  - first: {x: 1, y: 0, z: 0}
    second:
      serializedVersion: 2
      m_TileIndex: 4
      m_TileSpriteIndex: 4
      m_TileMatrixIndex: 0
      m_TileColorIndex: 0
      m_TileObjectToInstantiateIndex: 65535
      m_AllTileFlags: 1073741825
  - first: {x: 2, y: 0, z: 0}
    second:
      serializedVersion: 2
      m_TileIndex: 5
      m_TileSpriteIndex: 5
      m_TileMatrixIndex: 0
      m_TileColorIndex: 0
      m_TileObjectToInstantiateIndex: 65535
      m_AllTileFlags: 1073741825
  - first: {x: 3, y: 0, z: 0}
    second:
      serializedVersion: 2
      m_TileIndex: 6
      m_TileSpriteIndex: 6
      m_TileMatrixIndex: 0
      m_TileColorIndex: 0
      m_TileObjectToInstantiateIndex: 65535
      m_AllTileFlags: 1073741825
  - first: {x: 4, y: 0, z: 0}
    second:
      serializedVersion: 2
      m_TileIndex: 7
      m_TileSpriteIndex: 7
      m_TileMatrixIndex: 0
      m_TileColorIndex: 0
      m_TileObjectToInstantiateIndex: 65535
      m_AllTileFlags: 1073741825
  m_AnimatedTiles: {}
  m_TileAssetArray:
  - m_RefCount: 1
    m_Data: {fileID: 11400000, guid: e81c374ad83dd4feb9815d31795a28e2, type: 2}
  - m_RefCount: 1
    m_Data: {fileID: 11400000, guid: 86361bbc17bd3473f96f91048a44fc57, type: 2}
  - m_RefCount: 1
    m_Data: {fileID: 11400000, guid: 1269876adf9f3483c9b9a75eaa7f7208, type: 2}
  - m_RefCount: 1
    m_Data: {fileID: 11400000, guid: 87f6d7099497a4b54bd848000a78fb41, type: 2}
  - m_RefCount: 1
    m_Data: {fileID: 11400000, guid: 9610d56502c404ecc95a4d78b90a7424, type: 2}
  - m_RefCount: 1
    m_Data: {fileID: 11400000, guid: fd6f6f23c1d974f9cb62380cf8fbf845, type: 2}
  - m_RefCount: 1
    m_Data: {fileID: 11400000, guid: a98796575c6c84db39ebb0b503c3a3b4, type: 2}
  - m_RefCount: 1
    m_Data: {fileID: 11400000, guid: 24bc21ef156c346d4b1e987b68b799a2, type: 2}
  - m_RefCount: 1
    m_Data: {fileID: 11400000, guid: 8f4fca4c838104ca29b7a5e41398b6d7, type: 2}
  - m_RefCount: 1
    m_Data: {fileID: 11400000, guid: 6643de6a3ae0943a198830efdfd68a15, type: 2}
  - m_RefCount: 1
    m_Data: {fileID: 11400000, guid: 632ebd70c30c642fca0cd9a81164cbf9, type: 2}
  - m_RefCount: 1
    m_Data: {fileID: 11400000, guid: 815cc518898b34ab1ba5487510177eb9, type: 2}
  - m_RefCount: 1
    m_Data: {fileID: 11400000, guid: 6e973c1f23fe54af4a6a06b2e3c90e14, type: 2}
  - m_RefCount: 1
    m_Data: {fileID: 11400000, guid: b30a944b931de4d01a294c8aed39caba, type: 2}
  - m_RefCount: 1
    m_Data: {fileID: 11400000, guid: 7a2c3871ec81d41dd88c026a20b78dd1, type: 2}
  - m_RefCount: 1
    m_Data: {fileID: 11400000, guid: 8a0ae953f0fd448cb853fa9fca3a6ec5, type: 2}
  - m_RefCount: 1
    m_Data: {fileID: 11400000, guid: d13203a7be97b41a393bcc81535c991f, type: 2}
  - m_RefCount: 1
    m_Data: {fileID: 11400000, guid: a79a25f4186604fccb441295cb981ecb, type: 2}
  - m_RefCount: 1
    m_Data: {fileID: 11400000, guid: 9e4300bb6050b40328d68c5128c11961, type: 2}
  - m_RefCount: 1
    m_Data: {fileID: 11400000, guid: 0532a7a00e85b4aee8e74f17f3b1b26b, type: 2}
  - m_RefCount: 1
    m_Data: {fileID: 11400000, guid: a1e1e45928a0749e597fbd2bd95ada0e, type: 2}
  - m_RefCount: 1
    m_Data: {fileID: 11400000, guid: f1a4e2d01d3de4ae9bae5b73ee72d721, type: 2}
  - m_RefCount: 1
    m_Data: {fileID: 11400000, guid: 35cfae8dc94da41b290028d5b7ec5cc8, type: 2}
  - m_RefCount: 1
    m_Data: {fileID: 11400000, guid: 914ce054a5ef948f3813ba421dc439ea, type: 2}
  - m_RefCount: 1
    m_Data: {fileID: 11400000, guid: a90ff13c76edf4e71b1b71d70186f595, type: 2}
  - m_RefCount: 1
    m_Data: {fileID: 11400000, guid: 2dd3f47c8df55450eb92af6e20cf2f62, type: 2}
  - m_RefCount: 1
    m_Data: {fileID: 11400000, guid: 0b895d63b9f3a4ef9ae9a74c3e084709, type: 2}
  - m_RefCount: 1
    m_Data: {fileID: 11400000, guid: aa4104a4878fb4b2cb8039c5663fd92a, type: 2}
  - m_RefCount: 1
    m_Data: {fileID: 11400000, guid: 412368165bd344a03b0958ee65185471, type: 2}
  - m_RefCount: 1
    m_Data: {fileID: 11400000, guid: 0acc4d1af93a042ae8d8914dc8063f20, type: 2}
  - m_RefCount: 1
    m_Data: {fileID: 11400000, guid: 945e7c29583c2456f85a45a2784bc348, type: 2}
  - m_RefCount: 1
    m_Data: {fileID: 11400000, guid: 3ebdca088cc274208b2ee567d52c237e, type: 2}
  - m_RefCount: 1
    m_Data: {fileID: 11400000, guid: 7182dcbcd35024fbea2a049b17f37b6b, type: 2}
  - m_RefCount: 1
    m_Data: {fileID: 11400000, guid: 0b56cae4c0c424796ae1d3feea3f1c87, type: 2}
  - m_RefCount: 1
    m_Data: {fileID: 11400000, guid: d2df1bb5977a340d99a9ce2301cbae49, type: 2}
  - m_RefCount: 1
    m_Data: {fileID: 11400000, guid: 386d84524a1664cdd85cd5d78140f79d, type: 2}
  - m_RefCount: 1
    m_Data: {fileID: 11400000, guid: 1d103e10b63fd47988dbd338f142486d, type: 2}
  - m_RefCount: 1
    m_Data: {fileID: 11400000, guid: 690aa5c15d08b4fdf8ed32e28b2ee1bc, type: 2}
  - m_RefCount: 1
    m_Data: {fileID: 11400000, guid: f14e09451e11548fa8ca1c2667f08690, type: 2}
  - m_RefCount: 1
    m_Data: {fileID: 11400000, guid: c9c511a83511743c3918adff675618f2, type: 2}
  - m_RefCount: 1
    m_Data: {fileID: 11400000, guid: 8bf967c0fb5af415090ecc8e19fbc767, type: 2}
  - m_RefCount: 1
    m_Data: {fileID: 11400000, guid: 423a604c3ee284680b447379930063d2, type: 2}
  - m_RefCount: 1
    m_Data: {fileID: 11400000, guid: e57161c42a74749649322dd17275d418, type: 2}
  - m_RefCount: 1
    m_Data: {fileID: 11400000, guid: fd7bb1cf3788944a199c33be81bbf037, type: 2}
  - m_RefCount: 1
    m_Data: {fileID: 11400000, guid: 8da56ad301efd4fcea8ca71b7c802c01, type: 2}
  - m_RefCount: 1
    m_Data: {fileID: 11400000, guid: 07e464be282ba4067b3f6f5618c7f35f, type: 2}
  - m_RefCount: 1
    m_Data: {fileID: 11400000, guid: 33a761773a6b743c8a578facf1ea607b, type: 2}
  - m_RefCount: 1
    m_Data: {fileID: 11400000, guid: 30fe919b76b8b45d898ea8786e66cc58, type: 2}
  - m_RefCount: 1
    m_Data: {fileID: 11400000, guid: 312c1f126be3e475a928b9efbfd58a8f, type: 2}
  - m_RefCount: 1
    m_Data: {fileID: 11400000, guid: bce41cabaaf794bd2878048d44d0aaf8, type: 2}
  - m_RefCount: 1
    m_Data: {fileID: 11400000, guid: 815b531c52aff4f5e92be9610cccea19, type: 2}
  - m_RefCount: 1
    m_Data: {fileID: 11400000, guid: 48874e6ef3865421b9ccf79e72051f73, type: 2}
  - m_RefCount: 1
    m_Data: {fileID: 11400000, guid: 2f2797d9abd134689a281736d21b2619, type: 2}
  m_TileSpriteArray:
  - m_RefCount: 1
    m_Data: {fileID: 8491699665424375869, guid: 963c76998756f402ab14abd407dbb9d5,
      type: 3}
  - m_RefCount: 1
    m_Data: {fileID: -8345108040537585996, guid: 963c76998756f402ab14abd407dbb9d5,
      type: 3}
  - m_RefCount: 1
    m_Data: {fileID: 6375171671351813807, guid: 963c76998756f402ab14abd407dbb9d5,
      type: 3}
  - m_RefCount: 1
    m_Data: {fileID: -2632251229509275067, guid: 963c76998756f402ab14abd407dbb9d5,
      type: 3}
  - m_RefCount: 1
    m_Data: {fileID: 9095951438956159658, guid: 963c76998756f402ab14abd407dbb9d5,
      type: 3}
  - m_RefCount: 1
    m_Data: {fileID: 4016809971321531345, guid: 963c76998756f402ab14abd407dbb9d5,
      type: 3}
  - m_RefCount: 1
    m_Data: {fileID: 3504583221769764864, guid: 963c76998756f402ab14abd407dbb9d5,
      type: 3}
  - m_RefCount: 1
    m_Data: {fileID: 692611915229138020, guid: 963c76998756f402ab14abd407dbb9d5, type: 3}
  - m_RefCount: 1
    m_Data: {fileID: 3109116614918238040, guid: 963c76998756f402ab14abd407dbb9d5,
      type: 3}
  - m_RefCount: 1
    m_Data: {fileID: -8081521537769082411, guid: 963c76998756f402ab14abd407dbb9d5,
      type: 3}
  - m_RefCount: 1
    m_Data: {fileID: -6641809912215228151, guid: 963c76998756f402ab14abd407dbb9d5,
      type: 3}
  - m_RefCount: 1
    m_Data: {fileID: -7731731544964965769, guid: 963c76998756f402ab14abd407dbb9d5,
      type: 3}
  - m_RefCount: 1
    m_Data: {fileID: 1243527057575987432, guid: 963c76998756f402ab14abd407dbb9d5,
      type: 3}
  - m_RefCount: 1
    m_Data: {fileID: -8866097069307488362, guid: 963c76998756f402ab14abd407dbb9d5,
      type: 3}
  - m_RefCount: 1
    m_Data: {fileID: -7202610674359787247, guid: 963c76998756f402ab14abd407dbb9d5,
      type: 3}
  - m_RefCount: 1
    m_Data: {fileID: 1253861573934267700, guid: 963c76998756f402ab14abd407dbb9d5,
      type: 3}
  - m_RefCount: 1
    m_Data: {fileID: -4452288963420261355, guid: 963c76998756f402ab14abd407dbb9d5,
      type: 3}
  - m_RefCount: 1
    m_Data: {fileID: -8907608657277189368, guid: 963c76998756f402ab14abd407dbb9d5,
      type: 3}
  - m_RefCount: 1
    m_Data: {fileID: -6121347188785192452, guid: 963c76998756f402ab14abd407dbb9d5,
      type: 3}
  - m_RefCount: 1
    m_Data: {fileID: 8410962993322840559, guid: 963c76998756f402ab14abd407dbb9d5,
      type: 3}
  - m_RefCount: 1
    m_Data: {fileID: 1309381588780089597, guid: 963c76998756f402ab14abd407dbb9d5,
      type: 3}
  - m_RefCount: 1
    m_Data: {fileID: -6479010144496093804, guid: 963c76998756f402ab14abd407dbb9d5,
      type: 3}
  - m_RefCount: 1
    m_Data: {fileID: 7825719865998311055, guid: 963c76998756f402ab14abd407dbb9d5,
      type: 3}
  - m_RefCount: 1
    m_Data: {fileID: -8017434208544426360, guid: 963c76998756f402ab14abd407dbb9d5,
      type: 3}
  - m_RefCount: 1
    m_Data: {fileID: 6747785832446993235, guid: 963c76998756f402ab14abd407dbb9d5,
      type: 3}
  - m_RefCount: 1
    m_Data: {fileID: 2556149967321769230, guid: 963c76998756f402ab14abd407dbb9d5,
      type: 3}
  - m_RefCount: 1
    m_Data: {fileID: -2492596707014259654, guid: 963c76998756f402ab14abd407dbb9d5,
      type: 3}
  - m_RefCount: 1
    m_Data: {fileID: -913127378809681112, guid: 963c76998756f402ab14abd407dbb9d5,
      type: 3}
  - m_RefCount: 1
    m_Data: {fileID: -8118521913991167103, guid: 963c76998756f402ab14abd407dbb9d5,
      type: 3}
  - m_RefCount: 1
    m_Data: {fileID: 7548195852214870539, guid: 963c76998756f402ab14abd407dbb9d5,
      type: 3}
  - m_RefCount: 1
    m_Data: {fileID: 1723919770491130623, guid: 963c76998756f402ab14abd407dbb9d5,
      type: 3}
  - m_RefCount: 1
    m_Data: {fileID: 1609348717719199794, guid: 963c76998756f402ab14abd407dbb9d5,
      type: 3}
  - m_RefCount: 1
    m_Data: {fileID: -7711142703624307564, guid: 963c76998756f402ab14abd407dbb9d5,
      type: 3}
  - m_RefCount: 1
    m_Data: {fileID: -1960985248588686955, guid: 963c76998756f402ab14abd407dbb9d5,
      type: 3}
  - m_RefCount: 1
    m_Data: {fileID: 5672434307321699256, guid: 963c76998756f402ab14abd407dbb9d5,
      type: 3}
  - m_RefCount: 1
    m_Data: {fileID: 8419473973806677491, guid: 963c76998756f402ab14abd407dbb9d5,
      type: 3}
  - m_RefCount: 1
    m_Data: {fileID: 8106467657642874908, guid: 963c76998756f402ab14abd407dbb9d5,
      type: 3}
  - m_RefCount: 1
    m_Data: {fileID: 3075701960062608592, guid: 963c76998756f402ab14abd407dbb9d5,
      type: 3}
  - m_RefCount: 2
    m_Data: {fileID: -1184130954779128119, guid: 963c76998756f402ab14abd407dbb9d5,
      type: 3}
  - m_RefCount: 1
    m_Data: {fileID: 4514061782663450846, guid: 963c76998756f402ab14abd407dbb9d5,
      type: 3}
  - m_RefCount: 1
    m_Data: {fileID: 1322636834615245631, guid: 963c76998756f402ab14abd407dbb9d5,
      type: 3}
  - m_RefCount: 1
    m_Data: {fileID: -4931857826303422010, guid: 963c76998756f402ab14abd407dbb9d5,
      type: 3}
  - m_RefCount: 1
    m_Data: {fileID: -4039649864880041639, guid: 963c76998756f402ab14abd407dbb9d5,
      type: 3}
  - m_RefCount: 1
    m_Data: {fileID: -4363812118212898387, guid: 963c76998756f402ab14abd407dbb9d5,
      type: 3}
  - m_RefCount: 1
    m_Data: {fileID: -500029486527272511, guid: 963c76998756f402ab14abd407dbb9d5,
      type: 3}
  - m_RefCount: 1
    m_Data: {fileID: 1912420498441463594, guid: 963c76998756f402ab14abd407dbb9d5,
      type: 3}
  - m_RefCount: 1
    m_Data: {fileID: -8587042733922584403, guid: 963c76998756f402ab14abd407dbb9d5,
      type: 3}
  - m_RefCount: 1
    m_Data: {fileID: -525496766985892663, guid: 963c76998756f402ab14abd407dbb9d5,
      type: 3}
  - m_RefCount: 1
    m_Data: {fileID: -6810970211586790570, guid: 963c76998756f402ab14abd407dbb9d5,
      type: 3}
  - m_RefCount: 1
    m_Data: {fileID: -7208851487144539795, guid: 963c76998756f402ab14abd407dbb9d5,
      type: 3}
  - m_RefCount: 1
    m_Data: {fileID: -1596700782948895299, guid: 963c76998756f402ab14abd407dbb9d5,
      type: 3}
  - m_RefCount: 1
    m_Data: {fileID: 8408410300868981291, guid: 963c76998756f402ab14abd407dbb9d5,
      type: 3}
  m_TileMatrixArray:
  - m_RefCount: 53
    m_Data:
      e00: 1
      e01: 0
      e02: 0
      e03: 0
      e10: 0
      e11: 1
      e12: 0
      e13: 0
      e20: 0
      e21: 0
      e22: 1
      e23: 0
      e30: 0
      e31: 0
      e32: 0
      e33: 1
  m_TileColorArray:
  - m_RefCount: 53
    m_Data: {r: 1, g: 1, b: 1, a: 1}
  m_TileObjectToInstantiateArray: []
  m_AnimationFrameRate: 1
  m_Color: {r: 1, g: 1, b: 1, a: 1}
  m_Origin: {x: -3, y: -9, z: 0}
  m_Size: {x: 14, y: 10, z: 1}
  m_TileAnchor: {x: 0.5, y: 0.5, z: 0}
  m_TileOrientation: 0
  m_TileOrientationMatrix:
    e00: 1
    e01: 0
    e02: 0
    e03: 0
    e10: 0
    e11: 1
    e12: 0
    e13: 0
    e20: 0
    e21: 0
    e22: 1
    e23: 0
    e30: 0
    e31: 0
    e32: 0
    e33: 1
--- !u!483693784 &5700830690904849537
TilemapRenderer:
  m_ObjectHideFlags: 0
  m_CorrespondingSourceObject: {fileID: 0}
  m_PrefabInstance: {fileID: 0}
  m_PrefabAsset: {fileID: 0}
  m_GameObject: {fileID: 5482305436971719774}
  m_Enabled: 0
  m_CastShadows: 0
  m_ReceiveShadows: 0
  m_DynamicOccludee: 0
  m_MotionVectors: 1
  m_LightProbeUsage: 0
  m_ReflectionProbeUsage: 0
  m_RayTracingMode: 0
  m_RenderingLayerMask: 1
  m_RendererPriority: 0
  m_Materials:
  - {fileID: 10754, guid: 0000000000000000f000000000000000, type: 0}
  m_StaticBatchInfo:
    firstSubMesh: 0
    subMeshCount: 0
  m_StaticBatchRoot: {fileID: 0}
  m_ProbeAnchor: {fileID: 0}
  m_LightProbeVolumeOverride: {fileID: 0}
  m_ScaleInLightmap: 1
  m_ReceiveGI: 1
  m_PreserveUVs: 0
  m_IgnoreNormalsForChartDetection: 0
  m_ImportantGI: 0
  m_StitchLightmapSeams: 1
  m_SelectedEditorRenderState: 0
  m_MinimumChartSize: 4
  m_AutoUVMaxDistance: 0.5
  m_AutoUVMaxAngle: 89
  m_LightmapParameters: {fileID: 0}
  m_SortingLayerID: 0
  m_SortingLayer: 0
  m_SortingOrder: 0
  m_ChunkSize: {x: 32, y: 32, z: 32}
  m_ChunkCullingBounds: {x: 0.5, y: 0.5, z: 0}
  m_MaxChunkCount: 16
  m_MaxFrameAge: 16
  m_SortOrder: 0
  m_Mode: 0
  m_DetectChunkCullingBounds: 0
  m_MaskInteraction: 0
--- !u!1 &5862347242334197188
GameObject:
  m_ObjectHideFlags: 0
  m_CorrespondingSourceObject: {fileID: 0}
  m_PrefabInstance: {fileID: 0}
  m_PrefabAsset: {fileID: 0}
  serializedVersion: 6
  m_Component:
  - component: {fileID: 4871145583753662348}
  - component: {fileID: 1181100217056479134}
  m_Layer: 31
  m_Name: Manual Tiles
  m_TagString: Untagged
  m_Icon: {fileID: 0}
  m_NavMeshLayer: 0
  m_StaticEditorFlags: 0
  m_IsActive: 1
--- !u!4 &4871145583753662348
Transform:
  m_ObjectHideFlags: 0
  m_CorrespondingSourceObject: {fileID: 0}
  m_PrefabInstance: {fileID: 0}
  m_PrefabAsset: {fileID: 0}
  m_GameObject: {fileID: 5862347242334197188}
  m_LocalRotation: {x: 0, y: 0, z: 0, w: 1}
  m_LocalPosition: {x: 0, y: 0, z: 0}
  m_LocalScale: {x: 1, y: 1, z: 1}
  m_Children:
  - {fileID: 2941919443701795734}
  m_Father: {fileID: 0}
  m_RootOrder: 0
  m_LocalEulerAnglesHint: {x: 0, y: 0, z: 0}
--- !u!156049354 &1181100217056479134
Grid:
  m_ObjectHideFlags: 0
  m_CorrespondingSourceObject: {fileID: 0}
  m_PrefabInstance: {fileID: 0}
  m_PrefabAsset: {fileID: 0}
  m_GameObject: {fileID: 5862347242334197188}
  m_Enabled: 1
  m_CellSize: {x: 1, y: 1, z: 0}
  m_CellGap: {x: 0, y: 0, z: 0}
  m_CellLayout: 0
  m_CellSwizzle: 0
--- !u!114 &-3017062239219543861
MonoBehaviour:
  m_ObjectHideFlags: 0
  m_CorrespondingSourceObject: {fileID: 0}
  m_PrefabInstance: {fileID: 0}
  m_PrefabAsset: {fileID: 0}
  m_GameObject: {fileID: 0}
  m_Enabled: 1
  m_EditorHideFlags: 0
  m_Script: {fileID: 12395, guid: 0000000000000000e000000000000000, type: 0}
  m_Name: Palette Settings
  m_EditorClassIdentifier: 
  cellSizing: 0
